{
"com.badlogic.gdx.graphics.g2d.BitmapFont": {
	"unscii": {
		"file": "unscii-8-thin.fnt"
	}
},
"com.badlogic.gdx.graphics.Color": {
	"black": {
		"r": 0,
		"g": 0,
		"b": 0,
		"a": 1
	},
	"blue": {
		"r": 0.36862746,
		"g": 0.40392157,
		"b": 1,
		"a": 1
	},
	"gold": {
		"r": 1,
		"g": 0.9411765,
		"b": 0,
		"a": 1
	},
	"sky": {
		"r": 0.19215687,
		"g": 0.6039216,
		"b": 0.7921569,
		"a": 1
	},
	"white": {
		"r": 1,
		"g": 1,
		"b": 1,
		"a": 1
	}
},
"com.badlogic.gdx.scenes.scene2d.ui.Skin$TintedDrawable": {
	"sky": {
		"name": "white-pixel",
		"color": "sky"
	}
},
"com.badlogic.gdx.scenes.scene2d.ui.ImageTextButton$ImageTextButtonStyle": {
	"default": {
		"font": "unscii",
		"fontColor": "white"
	}
},
"com.badlogic.gdx.scenes.scene2d.ui.Label$LabelStyle": {
	"default": {
		"font": "unscii",
		"fontColor": "white"
	},
	"header": {
		"parent": "default",
		"font": "unscii",
		"fontColor": "black"
	},
	"recordsHeader": {
		"parent": "header",
		"font": "unscii",
		"fontColor": "white"
	}
},
"com.badlogic.gdx.scenes.scene2d.ui.TextButton$TextButtonStyle": {
	"default": {
		"font": "unscii",
		"fontColor": "white",
		"downFontColor": "gold",
		"pressedOffsetY": -10
	}
},
"com.badlogic.gdx.scenes.scene2d.ui.TextTooltip$TextTooltipStyle": {
	"default": {
		"label": "default"
	}
},
"com.badlogic.gdx.scenes.scene2d.ui.Window$WindowStyle": {
	"default": {
		"titleFont": "unscii"
	}
}
}